﻿[{
    "_id": "co-1000",
    "_parentId": "course",
    "_type": "page",
    "_classes": "zh_cn",
    "title": "簡介",
    "displayTitle": "簡介",
    "pageBody": "",
    "body": "瞭解 Facebook 和 Instagram 如何幫助您報導新聞及傳達訊息。",
    "_graphic": {
        "src": "course/en/images/contentObjects/co1.png",
        "alt": ""
    },
    "linkText": "查看",
    "height": "570",
    "durationLabel": "時間：",
    "duration": "5 分鐘",
    "_pageLevelProgress": {
        "_isEnabled": true
    }
}, {
    "_id": "co-2000",
    "_parentId": "course",
    "_type": "page",
    "_classes": "zh_cn",
    "title": "在動態消息與粉絲建立聯繫",
    "displayTitle": "在動態消息與粉絲建立聯繫 ",
    "pageBody": "",
    "body": "初步瞭解 Facebook 的核心體驗：動態消息。",
    "_graphic": {
        "src": "course/en/images/contentObjects/co2-newsfeed.png",
        "alt": ""
    },
    "linkText": "查看",
    "height": "570",
    "durationLabel": "時間：",
    "duration": "4 分鐘",
    "_pageLevelProgress": {
        "_isEnabled": true
    }
}, {
    "_id": "co-3000",
    "_parentId": "course",
    "_type": "page",
    "_classes": "zh_cn",
    "title": "發掘新聞題材",
    "displayTitle": "發掘新聞題材",
    "pageBody": "",
    "body": "瞭解如何在 Facebook 及 Instagram 發掘有價值的新聞來源和內容。",
    "_graphic": {
        "src": "course/en/images/contentObjects/co3-findstory.png",
        "alt": ""
    },
    "linkText": "查看",
    "height": "570",
    "durationLabel": "時間：",
    "duration": "10 分鐘",
    "_pageLevelProgress": {
        "_isEnabled": true
    }
}, 
{
    "_id": "co-4000",
    "_parentId": "course",
    "_type": "page",
    "_classes": "zh_cn",
    "title": "分享新聞報導",
    "displayTitle": "分享新聞報導",
    "pageBody": "",
    "body": "使用 Facebook 及 Instagram 提供的功能與工具，敘述報導並擴大內容的影響力。",
    "_graphic": {
        "src": "course/en/images/contentObjects/co4-tellstory.png",
        "alt": ""
    },
    "linkText": "查看",
    "height": "570",
    "durationLabel": "時間：",
    "duration": "8 分鐘",
    "_pageLevelProgress": {
        "_isEnabled": true
    }
},
{
    "_id": "co-5000",
    "_parentId": "course",
    "_type": "page",
    "_classes": "zh_cn",
    "title": "吸引目光並擴大觀眾群",
    "displayTitle": "吸引目光並擴大觀眾群",
    "pageBody": "",
    "body": "瞭解在 Facebook 及 Instagram 與觀眾互動的不同方式。",
    "_graphic": {
        "src": "course/en/images/contentObjects/co5.png",
        "alt": ""
    },
    "linkText": "查看",
    "height": "570",
    "durationLabel": "時間：",
    "duration": "7 分鐘",
    "_pageLevelProgress": {
        "_isEnabled": true
    }
}, {
    "_id": "co-6000",
    "_parentId": "course",
    "_type": "page",
    "_classes": "zh_cn",
    "title": "意見交流管道",
    "displayTitle": "意見交流管道",
    "pageBody": "",
    "body": "瞭解您可以透過哪些工具，衡量報導內容是否能引起觀眾的共鳴。",
    "_graphic": {
        "src": "course/en/images/contentObjects/co6-feedback.png",
        "alt": ""
    },
    "linkText": "查看",
    "height": "570",
    "durationLabel": "時間：",
    "duration": "5 分鐘",
    "_pageLevelProgress": {
        "_isEnabled": true
    }
}, 
{
        "_id":"co-7035a",
        "_parentId":"co-7035a",
        "_type":"page",
        "_classes":"zh_cn",
        "height":"570",
        "title":"Facebook 粉絲專頁 vs.個人檔案",
        "displayTitle":"Facebook 粉絲專頁 vs.個人檔案",
        "body":"您應該使用 Facebook 個人檔案還是設定粉絲專頁？",
        "_graphic": {
            "alt": "Facebook 粉絲專頁 Facebook 個人檔案 ",
            "src": "course/en/images/contentObjects/co7-fbpresence.png"
        },
        "linkText":"查看",
        "durationLabel": "時間：",
        "duration": "5 分鐘",
        "_pageLevelProgress": {
            "_isEnabled": true
        }
    },
 {
    "_id": "co-7000",
    "_parentId": "course",
    "_type": "page",
    "_classes": "zh_cn",
    "title": "在 Facebook 營造專業形象 ",
    "displayTitle": "在 Facebook 營造專業形象 ",
    "pageBody": "",
    "body": "瞭解如何在 Facebook 及 Instagram 建立您的新聞工作者形象。",
    "_graphic": {
        "src": "course/en/images/contentObjects/co7-fbpresence.png",
        "alt": ""
    },
    "linkText": "查看",
    "height": "570",
    "durationLabel": "時間：",
    "duration": "6 分鐘",
    "_pageLevelProgress": {
        "_isEnabled": true
    }
}, {
    "_id": "co-8000",
    "_parentId": "course",
    "_type": "page",
    "_classes": "zh_cn",
    "title": "給新聞工作者的資源",
    "displayTitle": "給新聞工作者的 Facebook 資源",
    "pageBody": "",
    "body": "參閱我們提供的工具摘要，包括收集新聞素材、報導新聞及觀眾互動工具。我們也提供了更多資源，幫助您瞭解本課程所涵蓋的主題。",
    "_graphic": {
        "src": "course/en/images/contentObjects/co8-resources.png",
        "alt": ""
    },
    "linkText": "查看",
    "height": "570",
    "durationLabel": "時間：",
    "duration": "7 分鐘",
    "_pageLevelProgress": {
        "_isEnabled": true
    }
}]